25

1
1
1
1
1
-1
-1
-1
-1

1
3
5
6
-1
3
2
-1
-2

3
-1
4
5
10
11
30
-5

5
2
1
-1
-1
2
-2

6
5
-1
15
-2
28

2
10
16
11
-2
-2
-1
2
1
2
-1
2

23
14
2
4
-1
-1
1
1
1
-2
2
6

1
-1
2
7
9
-1
4

2
5
2
4
-1
-1
11

17
13
-1
2
1
3
5
-1

9
-1
23
17
-1
2
1
8
-1

19
-1
10
2
3
7
-2

7
2
3
-1
-1
1
6
19
-2

7
3
-2
1
1
1
-2
3

27
-1
1
-1
23
5
-1
3
-1

7
2
9
10
-2
-2
-1
6
1

6
2
3
4
23
6
4
2
-1
-2
-4
1

2
3
-1
1
1
-2
8
10
-1

23
-1
5
6
9
-1
2
-3
3
8
10

5
2
3
-1
-1
3

6
-1
2
3
-1
2
-1

9
-1
2
6
14
-1
23
-1

25
-1
1
2
10
3
-1
5
-4

22
6
2
1
-1
-2
-1
6
13

1
2
10
23
5
4
2
-1
-1
-1
3
3
29
-1
-1
3
5
1
-1
-3
2
5
11
2
-1
-1
-1
3
4
-1
3
5
-1
