-248 -256 -112 352
-72 -72 136 -64 616
8 -24 -64 536 -24 296
-48 -304 624
-520 -16 -8 -8 408
-400 584
200 -224 -160 384
-72 80 -360 -40 -24 376
-64 96 -72 -64 -56 600
-64 32 -16 -16 -32 792
-344 -24 -16 584
152 -88 -568 160
-160 104 -56 648
-128 -64 784
-88 896
-16 -48 -56 -136 -32 664
-296 688
-192 -24 760
992
264 -56 -48 -40 552
-32 -128 -72 736
144 -80 752
