28

17
18
13
17
4
14
2
-1
14
-1
4
12

13
-1
8
12
-1
9
13
7
4
-4
5
-2

16
-1
2
19
-2

2
-1
18
-1
13
12
18

8
6

1

1
2
2
11
17
20
19
17
14
7
-10

5
17
11
1

6
-1
19
-1

10
14
-1
-1

7
-1
9
10
17
20
-4
-1
17
-3

11
17
5
-1
15
-2
1
11
6

19
-1
11
3
7
-3
-2
-1
17
20
-1
2

20
12
-2
8

11
20
-2
6
-2
-1
11
5
17
11
12
4

15
20
3
-2
3
-1
8
1
-4
17
9

10
10
19
10
6
12
11
-5
16
5

7
8
-1
2
2
2
-2
6
-2
1
9

11
-1
14

9
20
-1

9
6
14
3
15
-3
-3
3
8
7
17
15

13
1
2
18
-1
-2
16
4
16
4

16
-1
16
18
-1
-1
16
5
-2
15
10
-2

14
1
2
20
-4
20
9
-5
-4
19
16

19
-1
6
8
2
18
-1
20
9

11
16
14
9
-2
-2
-2
4
-1
6
-2

12
-1
9

20
12
14
20
-1
19
