-16 -40 264 -328 312
-112 872
-344 -64 96 -168 -168 112
-128 -8 -8 40 -576 -64 120
-24 200 -32 712
-32 776 -152 8
32 -96 264 -392 176
16 -136 -40 -32 120 -408 192
-80 -368 -112 -48 352
-24 -56 896
-16 -48 912
-96 -104 352 -104 304
-80 -320 -456 -40 64
16 -72 -48 832
-648 -32 -16 -24 -32 -40 -40 104
-512 -224 128 -48 48
640 -8 120 -120 -56 8
-24 600 -240 104
-120 -8 -48 -280 -16 -56 416
-288 -80 -32 568
-184 -96 -328 -144 -8 -16 -24 136
-24 -112 -104 416 -80 216
-576 -128 -32 -160 64
-64 -32 656 -160 48
-216 136 -40 24 -48 -296 184
