23

4
5
6
3
-2
5
-2
-1
10

2
5
-1
-1
9
8
2
3
-3
4
-2

8
1
-2
-1
2
-1
4
-1
5
5
-2
2
6
-1
7
-1
6

8
9
-1
-1
1
-1
10
3
2
7
-3
8
5
7

2
10
-2
-1
7
-1
1
5
-2
-1
2

5
5
-2
-1
4
5
7
-1

4
1
-2
9
1
7
4
2
1
4
-6
9
-1
4
1
-1
3
-1
-6

4
7
6
9
2
-2
2
-4
10
4
-5
-3
-3

6
-1
4
4
-1
5
5
-3
5
-2
8
-3
2
10
-4

7
7
7
1
-3
-1
1

10
-1
1
-1
1
-1
5
1
4
1

10
5
10
7
-1
8
3
-2
5
-3
9
3
-4
-2
3
8

6
-1
6
3
-1
5
9
-1

5
7
-2
5
7
1
4
7
-6
1
3
9
-4

5
-1
9
9
-1
8
-1
10
7
2
1

2
8
6
6
7
5
5
-3
-4
-2
1

7
7
-1
-1
4
5
-1
2
-2
6
5
5

1
5
-1
6
2
-2
4
-1
-1
9
4
-2
6
-2

5
-1
1
-1
9
6
6
-2
-2
-1
10

3
6
-1
7
8
1
2
-3
6

5
2
-1
8
10
-2
9
4

10
7
-1
4
-1
-1
1
-1
1
9

9
2
10
7
4
2
1
7
