-48 -56 -120 -56 -64 -32 -16 -104 432
208 -224 544
96 -56 824
-16 32 -48 -72 -96 -64 -72 -48 -96 -40 328
-40 32 -48 80 -32 -40 -24 -24 -72 -56 464
-8 -32 8 -24 -64 16 -80 -80 -80 528
-16 16 -24 136 -8 752
-144 -128 -24 -160 -176 320
-16 -56 -64 -24 -96 -24 -24 632
-8 -64 -40 -40 808
-24 -56 -96 -16 -48 -8 -80 -64 536
104 -64 8 -16 -64 -64 -56 -64 488
-8 -88 880
-192 -120 48 -72 528
-24 -32 -104 -48 -112 -32 -40 -16 -40 472
144 -160 672
56 -88 -96 72 -72 -96 -80 -88 280
-184 72 -184 -112 408
104 -160 -88 -112 496
-64 -24 -32 96 -80 656
112 -96 -192 -72 488
-304 -160 -80 424
-200 -16 -88 -184 -104 360
-56 120 -120 -104 560
-8 -40 16 -48 72 -88 -64 -8 -24 552
