20

7
4
-2
2
4
3
4
-5
-4

4
2
-1
-1
3
7
5

7
4
3
3
-2

7
7
5
1
-2
-1

4
1
1
2
-4
7
-3
-1
6
3
-1
-2
3
-1

5
5
4
6
4
5
3
-4
1
-5
-5
7

4
3
-1
5
5
7
-1
4
-1
7
2
3
-4
-2
3
1
3
7

7
2
4
-2
6
6
1
-1
2
-5
-3
1
-3
-2

5
2
-1
6
-2
3
4
-2

1
7
2
4
-1
-2

5
2
7
-1
1
-2
2
7
3
6
2
5
4
1
5
6
-12
5
4

6
2
-1
3
3
-2
-1
6
3
3
-4
6
1

3
6
-2
1
6
3
1
7
1
7
-2
-3
-6
-5
-4
-1

1
2
-1
1
1
-1
6
3
1
5
5
2
3
1
-7
-7
2

4
1
5
5
6
3
-2
1
1
-6
3
-2
-2
-3
3
4

6
6
1
4
5
2
-2
-3
5
3
-2
4
3
2
-7
-2

7
7
1
-2
-1
-1
7
1
2
-2
2
2
-1
2
-3
-3
2

4
7
-2
5
1
-2
2
7
-4
4
3
7
-1
7
-5
4
-1

7
4
-2
3
5
3
3
1
-2
5

1
4
-2
2
5
1
