25

7
3
9
13
-1

5
2
5
11
2
2
13
4
5
13
3
-5
-1
-3
-1
-1

9
6
7
8
10
4
5
11
2
-2
-1

4
5
2
9
1
2
11
11
7
11
2
-1
-1
-1
-1

5
4

10
8
10
4
3
10
-4
-2
-2
-1
-1

4
3
8
3
-2
-1

12
5
11
8
3
1
7
10

9
10
11
2
7
10
9
11
10
6
-1
-1
-1
-1

6

8
12
-1

3
13
10
7
8
-1

4

3
7
13
9
12
11
11
3
-1
-2
-1

4
8
9
13
-2
-2
-1

6
13
-1

2
13
4
-2
-1

5
4
2

3
12
-1

2
12
2
12
11
7
6
12
2
8
7
-2
-1
-1

12
11
4
3
3
4
-1
-1
-1

8
11
2
8
2
-2
-1

12
2
6
4
4
-3
-1
-1

10
9
12
-2
-1

6
3
13
6
8
