20

1
2
3
4
-1
-1
-1
-1

1
2
3
4
-4
-3
-2
-1

1
2
3
4
-2

1
2
3
4
-3
-1

1
2
3
4
-1
-1

1
2
3
4
-3
-2

1
2
3
4
-3
-1
-1

1
2
3
4
-2
-2
3
2

1
2
3
4
-2
-2
3
2
-1
-1
4

1
2
3
4
-2
-2
3
2
-1
-1
4

124
-1
123
-1
122
1
-1

123
-1
121
1
-1
118
1
-1
115
1
-1
112
1
-1
109
1
-1

123
-1
121
1
-1
118
1
-1
115
1
-1
112
1
-1
109
1
-1
-4
-3
-2

109
14
-1
14
14
64
14
-3
14
14
19
14
-5
14
1
1

109
14
-1
14
14
64
14
-3
14
14
19
14
-5
14
1
1
-10
-1
-2
-6
-3
-3

1
1
116
1
1

1
1
116
1
1
-1
-1
2

1
1
116
1
1
-5
-4
2

1
1
-1
-1
2
116
1
1

116
1
1
-2
2
1
-2
1
